
{
    "comment" : "This file is used to help set default values when using the dotnet CLI extension Amazon.ElasticBeanstalk.Tools. For more information run \"dotnet eb --help\" from the project root.",
    "profile" : "datingapp",
    "region"  : "ap-southeast-2",
    "application" : "OrderManagementApp",
    "environment" : "OrderManagementApp-prod",
    "cname"       : "ordermanagementapp-prod",
    "solution-stack" : "64bit Windows Server Core 2016 v2.2.2 running IIS 10.0",
    "environment-type" : "SingleInstance",
    "instance-profile" : "aws-elasticbeanstalk-ec2-role",
    "service-role"     : "aws-elasticbeanstalk-service-role",
    "health-check-url" : "/",
    "instance-type"    : "t2.micro",
    "key-pair"         : "pedram",
    "iis-website"      : "Default Web Site",
    "app-path"         : "/",
    "enable-xray"      : false
}